{
	"mappings": {
		"drinking_fountain": {
			"properties": {
				"lat_long": { "type": "geo_point" }
			}
		},
		"public_art": {
			"properties": {
				"lat_long": { "type": "geo_point" }
			}
		},
		"toilet": {
			"properties": {
				"lat_long": { "type": "geo_point" }
			}
		}
	}
}
